Simulation Techniques Project
…
df = tbl_df(df)         
df = filter(df, iyear==2014)   

dim(df)

## [1] 5682  330

m_feat <- df %>%
  select(sleptim1, smoke100)  #smoke100: Smoked At Least 100 Cigarettes

m_feat <- na.omit(m_feat)

print(m_feat)

## # A tibble: 5,306 x 2
##    sleptim1 smoke100
##       <int> <fct>   
##  1        5 No      
##  2        6 No      
##  3        5 Yes     
##  4        7 No      
##  5        7 Yes     
##  6        7 Yes     
##  7        8 No      
##  8        7 No      
##  9        7 Yes     
## 10        7 No      
## # ... with 5,296 more rows
…
# The null hypothesis (Ho) is that the data follow a normal distribution, and we will reject the Ho if the p-value < 0.05
# p-value < 2.2e-16
# Conclusion p < 2.2e-16, we can assume that this sample does not follow a normal distribution.

eliminated$sleptim1 = as.numeric(eliminated$sleptim1)
eliminated$smoke100 = as.numeric(eliminated$smoke100)

print(eliminated)

## # A tibble: 5,169 x 2
##    sleptim1 smoke100
##       <dbl>    <dbl>
##  1        5        2
##  2        6        2
##  3        5        1
##  4        7        2
##  5        7        1
##  6        7        1
##  7        8        2
##  8        7        2
##  9        7        1
## 10        7        2
## # ... with 5,159 more rows
…
